{
	"info": {
		"_postman_id": "7e1a1779-ab10-4fe5-96fe-aba33c5d806d",
		"name": "ChatApp",
		"schema": "https://schema.getpostman.com/json/collection/v2.1.0/collection.json"
	},
	"item": [
		{
			"name": "User",
			"item": [
				{
					"name": "User Sign Up",
					"request": {
						"method": "POST",
						"header": [],
						"body": {
							"mode": "raw",
							"raw": "// {\r\n//     \"name\":\"Yogesh\",\r\n// \"username\":\"Yogesh90\",\r\n// \"email\":\"yogesh@gmail.com\",\r\n// \"password\":\"12345\"\r\n// }\r\n{\r\n    \"name\":\"Rohit\",\r\n\"username\":\"rocky4692\",\r\n\"email\":\"rocky@gmail.com\",\r\n\"password\":\"12345\"\r\n}\r\n",
							"options": {
								"raw": {
									"language": "json"
								}
							}
						},
						"url": {
							"raw": "http://localhost:5000/user/signup",
							"protocol": "http",
							"host": [
								"localhost"
							],
							"port": "5000",
							"path": [
								"user",
								"signup"
							]
						}
					},
					"response": []
				},
				{
					"name": "Get all users",
					"request": {
						"method": "GET",
						"header": [],
						"url": {
							"raw": "http://localhost:5000/user/getAllUsers",
							"protocol": "http",
							"host": [
								"localhost"
							],
							"port": "5000",
							"path": [
								"user",
								"getAllUsers"
							]
						}
					},
					"response": []
				},
				{
					"name": "User Login",
					"request": {
						"method": "POST",
						"header": [],
						"body": {
							"mode": "raw",
							"raw": "{\r\n    \"username\":\"Yogesh90\",\r\n    \"password\":\"12345\"\r\n}",
							"options": {
								"raw": {
									"language": "json"
								}
							}
						},
						"url": {
							"raw": "http://localhost:5000/user/login",
							"protocol": "http",
							"host": [
								"localhost"
							],
							"port": "5000",
							"path": [
								"user",
								"login"
							]
						}
					},
					"response": []
				}
			]
		},
		{
			"name": "Chat",
			"item": [
				{
					"name": "Send message",
					"request": {
						"auth": {
							"type": "bearer",
							"bearer": [
								{
									"key": "token",
									"value": "eyJ0eXAiOiJKV1QiLCJhbGciOiJIUzI1NiJ9.eyJ1c2VyX2lkIjoyLCJleHAiOjE2MzUxMDg1NDJ9.8e2q7auxuYCL3rkziRRoNkGYKk8PKBTvONQ4XwIU-UY",
									"type": "string"
								}
							]
						},
						"method": "POST",
						"header": [],
						"body": {
							"mode": "raw",
							"raw": "{\r\n    \"username\":\"rocky4692\",\r\n    \"message\":\"this is a test message\"\r\n}",
							"options": {
								"raw": {
									"language": "json"
								}
							}
						},
						"url": {
							"raw": "http://localhost:5000/user/chat",
							"protocol": "http",
							"host": [
								"localhost"
							],
							"port": "5000",
							"path": [
								"user",
								"chat"
							]
						}
					},
					"response": []
				},
				{
					"name": "get user chats",
					"request": {
						"method": "GET",
						"header": [],
						"url": {
							"raw": ""
						}
					},
					"response": []
				},
				{
					"name": "Get users recent chats",
					"protocolProfileBehavior": {
						"disableBodyPruning": true
					},
					"request": {
						"auth": {
							"type": "bearer",
							"bearer": [
								{
									"key": "token",
									"value": "eyJ0eXAiOiJKV1QiLCJhbGciOiJIUzI1NiJ9.eyJ1c2VyX2lkIjoyLCJleHAiOjE2MzUyMzUwOTd9.rigGx63k1N7b8dH-un5PUf9TfP-xzH94bA7oXRAPffk",
									"type": "string"
								}
							]
						},
						"method": "GET",
						"header": [],
						"body": {
							"mode": "raw",
							"raw": "",
							"options": {
								"raw": {
									"language": "json"
								}
							}
						},
						"url": {
							"raw": "http://localhost:5000/user/chat/recent",
							"protocol": "http",
							"host": [
								"localhost"
							],
							"port": "5000",
							"path": [
								"user",
								"chat",
								"recent"
							]
						}
					},
					"response": []
				}
			]
		},
		{
			"name": "Group",
			"item": [
				{
					"name": "Create Group",
					"request": {
						"auth": {
							"type": "bearer",
							"bearer": [
								{
									"key": "token",
									"value": "eyJ0eXAiOiJKV1QiLCJhbGciOiJIUzI1NiJ9.eyJ1c2VyX2lkIjoxLCJleHAiOjE2MzUxMDYzMTN9.0j6bR2ewK9glzb2VzWxkCg-d3XrlGeQ2uBJKg53dI-0",
									"type": "string"
								}
							]
						},
						"method": "POST",
						"header": [],
						"body": {
							"mode": "raw",
							"raw": "{\r\n    \"group_name\":\"test\",\r\n    \"group_desc\":\"Group created successfully\"\r\n}",
							"options": {
								"raw": {
									"language": "json"
								}
							}
						},
						"url": {
							"raw": "http://localhost:5000/group/create",
							"protocol": "http",
							"host": [
								"localhost"
							],
							"port": "5000",
							"path": [
								"group",
								"create"
							]
						}
					},
					"response": []
				}
			]
		},
		{
			"name": "testing route",
			"request": {
				"auth": {
					"type": "bearer",
					"bearer": [
						{
							"key": "token",
							"value": "eyJ0eXAiOiJKV1QiLCJhbGciOiJIUzI1NiJ9.eyJ1c2VyX2lkIjoxLCJleHAiOjE2MzUxMDMyMjV9.NvzLbatK2kExiIvS7eU6YZKEdXHg7g8A3Jo5NOJ1DcU",
							"type": "string"
						}
					]
				},
				"method": "POST",
				"header": [
					{
						"key": "x-access-token",
						"value": "eyJ0eXAiOiJKV1QiLCJhbGciOiJIUzI1NiJ9.eyJ1c2VyX2lkIjoxLCJleHAiOjE2MzUxMDMyMjV9.NvzLbatK2kExiIvS7eU6YZKEdXHg7g8A3Jo5NOJ1DcU",
						"type": "text"
					}
				],
				"url": {
					"raw": "http://localhost:5000/user/test",
					"protocol": "http",
					"host": [
						"localhost"
					],
					"port": "5000",
					"path": [
						"user",
						"test"
					]
				}
			},
			"response": []
		}
	]
}